…
The 2013/14 voters with the greatest deviations from average are:

mvp$raw.diff[[1]]

## # A tibble: 125 × 2
##    Voter              diff
##    <chr>             <dbl>
##  1 Al McCoy           13.1
##  2 Cedric Maxwell     11.4
##  3 Ron Tillery        11.4
##  4 Ted Davis          10.9
##  5 Dominique Wilkins  10.9
##  6 Eric Hasseltine    10.5
##  7 Brendan Brown      10.4
##  8 Bob Cooney         10.4
##  9 Steve Martin       10.3
## 10 Dave Johnson       10.3
## # ℹ 115 more rows
…
Bill Simmons and Diego Martinez Cabrera also stand out, but not to the extent of Cowley and Washburn. Simmons separated himself from the rest of the media because he was the other voter to give Oladipo a mention. The reason for Cabrera is less apparent, but is because of his combination of player placements.

Compare the plot to the results given by point differentials.

mvp$raw.diff[[5]]

## # A tibble: 101 × 2
##    Voter              diff
##    <chr>             <dbl>
##  1 NBA Fan Component 10.1 
##  2 Gary Washburn      9.90
##  3 Dennis Scott       9.76
##  4 Joe Cowley         8.69
##  5 Marv Albert        7.92
##  6 Sherrod Blakely    7.50
##  7 Richard Walker     7.41
##  8 Elliott Teaford    7.31
##  9 Chris Webber       7.01
## 10 Ric Bucher         6.48
## # ℹ 91 more rows
…
